porte réseau:
"p1":[14.88, 6.01],
"p2":[23.43, 80.19]

Appphoto gauche : 
"p1":[1.54, 46.04],
"p2":[5.47, 55.46]

Fleche bas:
"p1":[50, 88.52],
"p2":[54.49, 96.45]

Appphoto droite:
"p1":[95.08, 46.04],
"p2":[99.14, 55.46]

Fleche haut:
"p1":[50, 4.37],
"p2":[54.49, 11.48]